<?xml version="1.0" encoding="utf-8"?>
<!-- Generator: Adobe Illustrator 16.0.0, SVG Export Plug-In . SVG Version: 6.00 Build 0)  -->
<!DOCTYPE svg PUBLIC "-//W3C//DTD SVG 1.0//EN" "http://www.w3.org/TR/2001/REC-SVG-20010904/DTD/svg10.dtd">
<svg version="1.0" id="Layer_1" xmlns="http://www.w3.org/2000/svg" xmlns:xlink="http://www.w3.org/1999/xlink" x="0px" y="0px"
	 width="512px" height="512px" viewBox="0 0 512 512" enable-background="new 0 0 512 512" xml:space="preserve">
<g>
	<path fill="#3ADB76" d="M466,26H46c-11.028,0-20,8.972-20,20v420c0,11.028,8.972,20,20,20h420c11.028,0,20-8.972,20-20V46
		C486,34.972,477.028,26,466,26z"/>
	<path fill="#FFFFFF" d="M466,6H46C24,6,6,24,6,46v420c0,22,18,40,40,40h420c22,0,40-18,40-40V46C506,24,488,6,466,6z M486,466
		c0,11.028-8.972,20-20,20H46c-11.028,0-20-8.972-20-20V46c0-11.028,8.972-20,20-20h420c11.028,0,20,8.972,20,20V466z"/>
</g>
<g>
	<path fill="#FFFFFF" d="M338.009,297.324c-2.637,22.559-10.963,39.968-24.976,52.222c-14.015,12.257-32.643,18.384-55.884,18.384
		c-25.195,0-45.387-9.031-60.571-27.1c-15.187-18.065-22.778-42.235-22.778-72.51v-20.508c0-19.823,3.539-37.255,10.62-52.295
		c7.079-15.037,17.113-26.587,30.103-34.644c12.987-8.057,28.026-12.085,45.117-12.085c22.655,0,40.819,6.324,54.492,18.97
		c13.671,12.648,21.629,30.153,23.877,52.515h-28.271c-2.442-17.043-7.741-29.386-15.894-37.026
		c-8.155-7.64-19.556-11.46-34.204-11.46c-17.97,0-32.057,6.646-42.261,19.94c-10.206,13.293-15.308,32.203-15.308,56.735v20.672
		c0,23.165,4.834,41.591,14.502,55.273s23.192,20.523,40.576,20.523c15.624,0,27.612-3.538,35.962-10.62
		c8.35-7.079,13.891-19.409,16.626-36.987H338.009z"/>
</g>
</svg>
